<?xml version="1.0" encoding="UTF-8"?>
<svg width="18px" height="18px" viewBox="0 0 18 18" version="1.1" xmlns="http://www.w3.org/2000/svg" xmlns:xlink="http://www.w3.org/1999/xlink">
    <title>Rate</title>
    <g id="Page-1" stroke="none" stroke-width="1" fill="none" fill-rule="evenodd">
        <g id="Hack-01---Home" transform="translate(-120.000000, -536.000000)">
            <g id="Group-2" transform="translate(96.000000, 324.000000)">
                <g id="Rate-Functional-18px" transform="translate(24.000000, 212.000000)">
                    <path d="M9.45385703,13.7259408 C9.20365379,13.5543053 8.79489154,13.5543053 8.54468831,13.7259408 L3.88101644,16.9164714 C3.63081321,17.0866525 3.49480157,16.9884711 3.57699042,16.6975634 L4.9843836,11.7186774 C5.06875445,11.4277697 4.96183621,11.0117716 4.74872707,10.7957726 L1.12223488,7.10560797 C0.909125727,6.88960898 0.981859225,6.68960991 1.28443057,6.66197367 L6.08411408,6.21324849 C6.38523076,6.18488498 6.73071487,5.93397706 6.85145248,5.65616017 L8.78034484,1.20890812 C8.90108244,0.93036396 9.09891756,0.93036396 9.21820049,1.20890812 L11.1485475,5.65616017 C11.2678305,5.93397706 11.6147692,6.18488498 11.9158859,6.21324849 L16.7155694,6.66051913 C17.0181408,6.68960991 17.0908743,6.88960898 16.8777651,7.10560797 L13.2512729,10.7957726 C13.0381638,11.0117716 12.9312455,11.4277697 13.0148891,11.7186774 L14.4230096,16.6975634 C14.5051984,16.9884711 14.3691868,17.0866525 14.1189836,16.9164714 L9.45385703,13.7259408 Z" id="🎨-Icon-Color" stroke="#FFCB00" stroke-width="1.25" fill="#FFCB00" stroke-linecap="round" stroke-linejoin="round"></path>
                    <rect id="Rectangle" x="0" y="0" width="18" height="18"></rect>
                </g>
            </g>
        </g>
    </g>
</svg>